{
    "success": true,
    "rows": [
        {
            "id": 5521,
            "message_sending_context": "[702Drive+]\n님 \n차종 : \n차량번호 : \n미납 회차 : 2회차(25년 03월분), 3회차(25년 04월분), 4회차(25년 05월분), 5회차(25년 06월분), 6회차(25년 07월분)\n\n5,999,605원이 미납중 입니다.\n\n우리은행 60401043118406\n코오롱모빌리티그룹\n\n\n미납 연체이자가 부과되며, 신용상의 불이익이 발생할 수 있습니다.\n미납 연체이자는 렌트료 실납입일로 계산하여 익월 청구 됩니다.\n\n\n고객센터\n1522-4702\n운영시간 평일 09:00~18:00",
            "user_id": null,
            "cust_id": "91",
            "template_code": "SJB_086669",
            "reserve_id": null,
            "message_reserve_datetime": null,
            "message_sending_datetime": "2025-08-07 13:00",
            "message_receive_number": "01079337317",
            "send_type": "연체안내v2",
            "send_status": "success",
            "result_code": "200",
            "result_message": "true",
            "notification_id": "16",
            "contract_id": "136",
            "customer_id": "91",
            "reg_date": "2025-08-07T04:00:01.000Z",
            "is_del": 0,
            "cust_code": "CUST-R-0091",
            "cust_name": "000",
            "cust_type": "personal",
            "cust_phone_number": "01079337317",
            "cust_gender": null,
            "cust_email": null,
            "cust_address": "서울특별시 강남구 0000",
            "cust_final_manager": null,
            "cust_regist_date": "2024-12-31T01:57:02.000Z",
            "cust_delete_reason": null,
            "cust_delete_etc_reason": null,
            "cust_number": null,
            "cust_represent": null,
            "business_registration_number": null,
            "company_registration_number": null,
            "is_3rd_agreement": 0,
            "cust_phone_number2": null,
            "cust_contact_person": null,
            "resident_registration_number": null,
            "cust_birthday": "2000-10-04T15:00:00.000Z",
            "is_driver": 0,
            "is_contractor": 1,
            "submenu": "new",
            "advertising_consent": null,
            "is_privacy_consent": null,
            "is_marketing_consent": null,
            "marketing_consent_form": null,
            "last_updated_consent_agreement": null,
            "resource": null,
            "hp_no": null,
            "is_agree_marketing_usage": 0,
            "transmission_time": null,
            "name": "자동발송"
        }
     ],
    "attrs": {
        "page": "1",
        "total_count": 101,
        "total_page": 2
    }
}